;Code 111;;Code 112;
Dataset;Heuristic;DP;Heuristic;DP
output/heu_111/111_APCP.tk2r;6,032.76;6,428.41;5,581.74;5,105.39
output/heu_111/111_CAPE.tk2r;15,732.10;15,613.90;22,649.20;22,432.00
output/heu_111/111_CONVfrac.tk2r;29,856.70;30,275.30;19,685.70;19,141.90
output/heu_111/111_DLWRF.tk2r;135,337.00;125,198.00;89,862.30;84,928.20
output/heu_111/111_DSWRF.tk2r;36,083.20;38,644.70;26,971.70;27,976.30
output/heu_111/111_PEVAP.tk2r;45,312.30;46,525.60;39,045.50;41,068.30
output/heu_111/111_PRES.tk2r;192,722.00;201,468.00;119,589.00;122,232.00
output/heu_111/111_SPFH.tk2r;78,031.10;77,706.30;78,012.70;86,579.70
output/heu_111/111_TMP.tk2r;73,057.20;68,778.30;56,049.90;59,582.30
output/heu_111/111_UGRD.tk2r;76,695.60;79,899.50;66,823.30;72,855.60
output/heu_111/111_VGRD.tk2r;78,092.60;77,260.00;53,354.00;70,689.10
